%!PS-Adobe-3.0 EPSF-3.0
%%Creator: (MATLAB, The Mathworks, Inc. Version 8.5.0.197613 \(R2015a\). Operating System: Linux)
%%Title: /RAID2/mmstastn/SMHD-vorts/code/plots/DmetricEta.eps
%%CreationDate: 2015-11-24T00:40:51
%%Pages: (atend)
%%BoundingBox: 0 0 773 596
%%LanguageLevel: 2
%%EndComments
%%BeginProlog
%%BeginResource: procset (Apache XML Graphics Std ProcSet) 1.2 0
%%Version: 1.2 0
%%Copyright: (Copyright 2001-2003,2010 The Apache Software Foundation. License terms: http://www.apache.org/licenses/LICENSE-2.0)
/bd{bind def}bind def
/ld{load def}bd
/GR/grestore ld
/M/moveto ld
/LJ/setlinejoin ld
/C/curveto ld
/f/fill ld
/LW/setlinewidth ld
/GC/setgray ld
/t/show ld
/N/newpath ld
/CT/concat ld
/cp/closepath ld
/S/stroke ld
/L/lineto ld
/CC/setcmykcolor ld
/A/ashow ld
/GS/gsave ld
/RC/setrgbcolor ld
/RM/rmoveto ld
/ML/setmiterlimit ld
/re {4 2 roll M
1 index 0 rlineto
0 exch rlineto
neg 0 rlineto
cp } bd
/_ctm matrix def
/_tm matrix def
/BT { _ctm currentmatrix pop matrix _tm copy pop 0 0 moveto } bd
/ET { _ctm setmatrix } bd
/iTm { _ctm setmatrix _tm concat } bd
/Tm { _tm astore pop iTm 0 0 moveto } bd
/ux 0.0 def
/uy 0.0 def
/F {
  /Tp exch def
  /Tf exch def
  Tf findfont Tp scalefont setfont
  /cf Tf def  /cs Tp def
} bd
/ULS {currentpoint /uy exch def /ux exch def} bd
/ULE {
  /Tcx currentpoint pop def
  gsave
  newpath
  cf findfont cs scalefont dup
  /FontMatrix get 0 get /Ts exch def /FontInfo get dup
  /UnderlinePosition get Ts mul /To exch def
  /UnderlineThickness get Ts mul /Tt exch def
  ux uy To add moveto  Tcx uy To add lineto
  Tt setlinewidth stroke
  grestore
} bd
/OLE {
  /Tcx currentpoint pop def
  gsave
  newpath
  cf findfont cs scalefont dup
  /FontMatrix get 0 get /Ts exch def /FontInfo get dup
  /UnderlinePosition get Ts mul /To exch def
  /UnderlineThickness get Ts mul /Tt exch def
  ux uy To add cs add moveto Tcx uy To add cs add lineto
  Tt setlinewidth stroke
  grestore
} bd
/SOE {
  /Tcx currentpoint pop def
  gsave
  newpath
  cf findfont cs scalefont dup
  /FontMatrix get 0 get /Ts exch def /FontInfo get dup
  /UnderlinePosition get Ts mul /To exch def
  /UnderlineThickness get Ts mul /Tt exch def
  ux uy To add cs 10 mul 26 idiv add moveto Tcx uy To add cs 10 mul 26 idiv add lineto
  Tt setlinewidth stroke
  grestore
} bd
/QT {
/Y22 exch store
/X22 exch store
/Y21 exch store
/X21 exch store
currentpoint
/Y21 load 2 mul add 3 div exch
/X21 load 2 mul add 3 div exch
/X21 load 2 mul /X22 load add 3 div
/Y21 load 2 mul /Y22 load add 3 div
/X22 load /Y22 load curveto
} bd
/SSPD {
dup length /d exch dict def
{
/v exch def
/k exch def
currentpagedevice k known {
/cpdv currentpagedevice k get def
v cpdv ne {
/upd false def
/nullv v type /nulltype eq def
/nullcpdv cpdv type /nulltype eq def
nullv nullcpdv or
{
/upd true def
} {
/sametype v type cpdv type eq def
sametype {
v type /arraytype eq {
/vlen v length def
/cpdvlen cpdv length def
vlen cpdvlen eq {
0 1 vlen 1 sub {
/i exch def
/obj v i get def
/cpdobj cpdv i get def
obj cpdobj ne {
/upd true def
exit
} if
} for
} {
/upd true def
} ifelse
} {
v type /dicttype eq {
v {
/dv exch def
/dk exch def
/cpddv cpdv dk get def
dv cpddv ne {
/upd true def
exit
} if
} forall
} {
/upd true def
} ifelse
} ifelse
} if
} ifelse
upd true eq {
d k v put
} if
} if
} if
} forall
d length 0 gt {
d setpagedevice
} if
} bd
%%EndResource
%%BeginResource: procset (Apache XML Graphics EPS ProcSet) 1.0 0
%%Version: 1.0 0
%%Copyright: (Copyright 2002-2003 The Apache Software Foundation. License terms: http://www.apache.org/licenses/LICENSE-2.0)
/BeginEPSF { %def
/b4_Inc_state save def         % Save state for cleanup
/dict_count countdictstack def % Count objects on dict stack
/op_count count 1 sub def      % Count objects on operand stack
userdict begin                 % Push userdict on dict stack
/showpage { } def              % Redefine showpage, { } = null proc
0 setgray 0 setlinecap         % Prepare graphics state
1 setlinewidth 0 setlinejoin
10 setmiterlimit [ ] 0 setdash newpath
/languagelevel where           % If level not equal to 1 then
{pop languagelevel             % set strokeadjust and
1 ne                           % overprint to their defaults.
{false setstrokeadjust false setoverprint
} if
} if
} bd
/EndEPSF { %def
count op_count sub {pop} repeat            % Clean up stacks
countdictstack dict_count sub {end} repeat
b4_Inc_state restore
} bd
%%EndResource
%FOPBeginFontDict
%%IncludeResource: font Courier-Bold
%%IncludeResource: font Helvetica
%%IncludeResource: font Courier-BoldOblique
%%IncludeResource: font Courier-Oblique
%%IncludeResource: font Times-Roman
%%IncludeResource: font Helvetica-BoldOblique
%%IncludeResource: font Helvetica-Bold
%%IncludeResource: font Helvetica-Oblique
%%IncludeResource: font Times-BoldItalic
%%IncludeResource: font Courier
%%IncludeResource: font Times-Italic
%%IncludeResource: font Times-Bold
%%IncludeResource: font Symbol
%%IncludeResource: font ZapfDingbats
%FOPEndFontDict
%%BeginResource: encoding WinAnsiEncoding
/WinAnsiEncoding [
/.notdef /.notdef /.notdef /.notdef /.notdef
/.notdef /.notdef /.notdef /.notdef /.notdef
/.notdef /.notdef /.notdef /.notdef /.notdef
/.notdef /.notdef /.notdef /.notdef /.notdef
/.notdef /.notdef /.notdef /.notdef /.notdef
/.notdef /.notdef /.notdef /.notdef /.notdef
/.notdef /.notdef /space /exclam /quotedbl
/numbersign /dollar /percent /ampersand /quotesingle
/parenleft /parenright /asterisk /plus /comma
/hyphen /period /slash /zero /one
/two /three /four /five /six
/seven /eight /nine /colon /semicolon
/less /equal /greater /question /at
/A /B /C /D /E
/F /G /H /I /J
/K /L /M /N /O
/P /Q /R /S /T
/U /V /W /X /Y
/Z /bracketleft /backslash /bracketright /asciicircum
/underscore /quoteleft /a /b /c
/d /e /f /g /h
/i /j /k /l /m
/n /o /p /q /r
/s /t /u /v /w
/x /y /z /braceleft /bar
/braceright /asciitilde /bullet /Euro /bullet
/quotesinglbase /florin /quotedblbase /ellipsis /dagger
/daggerdbl /circumflex /perthousand /Scaron /guilsinglleft
/OE /bullet /Zcaron /bullet /bullet
/quoteleft /quoteright /quotedblleft /quotedblright /bullet
/endash /emdash /asciitilde /trademark /scaron
/guilsinglright /oe /bullet /zcaron /Ydieresis
/space /exclamdown /cent /sterling /currency
/yen /brokenbar /section /dieresis /copyright
/ordfeminine /guillemotleft /logicalnot /sfthyphen /registered
/macron /degree /plusminus /twosuperior /threesuperior
/acute /mu /paragraph /middot /cedilla
/onesuperior /ordmasculine /guillemotright /onequarter /onehalf
/threequarters /questiondown /Agrave /Aacute /Acircumflex
/Atilde /Adieresis /Aring /AE /Ccedilla
/Egrave /Eacute /Ecircumflex /Edieresis /Igrave
/Iacute /Icircumflex /Idieresis /Eth /Ntilde
/Ograve /Oacute /Ocircumflex /Otilde /Odieresis
/multiply /Oslash /Ugrave /Uacute /Ucircumflex
/Udieresis /Yacute /Thorn /germandbls /agrave
/aacute /acircumflex /atilde /adieresis /aring
/ae /ccedilla /egrave /eacute /ecircumflex
/edieresis /igrave /iacute /icircumflex /idieresis
/eth /ntilde /ograve /oacute /ocircumflex
/otilde /odieresis /divide /oslash /ugrave
/uacute /ucircumflex /udieresis /yacute /thorn
/ydieresis
] def
%%EndResource
%FOPBeginFontReencode
/Courier-Bold findfont
dup length dict begin
  {1 index /FID ne {def} {pop pop} ifelse} forall
  /Encoding WinAnsiEncoding def
  currentdict
end
/Courier-Bold exch definefont pop
/Helvetica findfont
dup length dict begin
  {1 index /FID ne {def} {pop pop} ifelse} forall
  /Encoding WinAnsiEncoding def
  currentdict
end
/Helvetica exch definefont pop
/Courier-BoldOblique findfont
dup length dict begin
  {1 index /FID ne {def} {pop pop} ifelse} forall
  /Encoding WinAnsiEncoding def
  currentdict
end
/Courier-BoldOblique exch definefont pop
/Courier-Oblique findfont
dup length dict begin
  {1 index /FID ne {def} {pop pop} ifelse} forall
  /Encoding WinAnsiEncoding def
  currentdict
end
/Courier-Oblique exch definefont pop
/Times-Roman findfont
dup length dict begin
  {1 index /FID ne {def} {pop pop} ifelse} forall
  /Encoding WinAnsiEncoding def
  currentdict
end
/Times-Roman exch definefont pop
/Helvetica-BoldOblique findfont
dup length dict begin
  {1 index /FID ne {def} {pop pop} ifelse} forall
  /Encoding WinAnsiEncoding def
  currentdict
end
/Helvetica-BoldOblique exch definefont pop
/Helvetica-Bold findfont
dup length dict begin
  {1 index /FID ne {def} {pop pop} ifelse} forall
  /Encoding WinAnsiEncoding def
  currentdict
end
/Helvetica-Bold exch definefont pop
/Helvetica-Oblique findfont
dup length dict begin
  {1 index /FID ne {def} {pop pop} ifelse} forall
  /Encoding WinAnsiEncoding def
  currentdict
end
/Helvetica-Oblique exch definefont pop
/Times-BoldItalic findfont
dup length dict begin
  {1 index /FID ne {def} {pop pop} ifelse} forall
  /Encoding WinAnsiEncoding def
  currentdict
end
/Times-BoldItalic exch definefont pop
/Courier findfont
dup length dict begin
  {1 index /FID ne {def} {pop pop} ifelse} forall
  /Encoding WinAnsiEncoding def
  currentdict
end
/Courier exch definefont pop
/Times-Italic findfont
dup length dict begin
  {1 index /FID ne {def} {pop pop} ifelse} forall
  /Encoding WinAnsiEncoding def
  currentdict
end
/Times-Italic exch definefont pop
/Times-Bold findfont
dup length dict begin
  {1 index /FID ne {def} {pop pop} ifelse} forall
  /Encoding WinAnsiEncoding def
  currentdict
end
/Times-Bold exch definefont pop
%FOPEndFontReencode
%%EndProlog
%%Page: 1 1
%%PageBoundingBox: 0 0 773 596
%%BeginPageSetup
[1 0 0 -1 0 596] CT
%%EndPageSetup
GS
[0.75 0 0 0.75 0 0.5] CT
1 GC
N
0 0 1031 794 re
f
GR
GS
[0.75 0 0 0.75 0 0.5] CT
1 GC
N
0 0 1031 794 re
f
GR
GS
[0.75 0 0 0.75 0 0.5] CT
1 GC
N
134 231 M
933 231 L
933 60 L
134 60 L
cp
f
GR
GS
[0.75 0 0 0.75 400.12527 191.5] CT
0.149 GC
/Helvetica 15 F
GS
[1 0 0 1 0 0] CT
-19 14 moveto 
1 -1 scale
(Time) t 
GR
GR
GS
[0.75 0 0 0.75 0 0.5] CT
0.149 GC
2 setlinecap
10.0 ML
N
134 231 M
933 231 L
S
GR
GS
[0.75 0 0 0.75 0 0.5] CT
0.149 GC
2 setlinecap
10.0 ML
N
134 60 M
933 60 L
S
GR
GS
[0.75 0 0 0.75 0 0.5] CT
0.149 GC
2 setlinecap
10.0 ML
N
134 231 M
134 223.01 L
S
GR
GS
[0.75 0 0 0.75 0 0.5] CT
0.149 GC
2 setlinecap
10.0 ML
N
267.167 231 M
267.167 223.01 L
S
GR
GS
[0.75 0 0 0.75 0 0.5] CT
0.149 GC
2 setlinecap
10.0 ML
N
400.333 231 M
400.333 223.01 L
S
GR
GS
[0.75 0 0 0.75 0 0.5] CT
0.149 GC
2 setlinecap
10.0 ML
N
533.5 231 M
533.5 223.01 L
S
GR
GS
[0.75 0 0 0.75 0 0.5] CT
0.149 GC
2 setlinecap
10.0 ML
N
666.667 231 M
666.667 223.01 L
S
GR
GS
[0.75 0 0 0.75 0 0.5] CT
0.149 GC
2 setlinecap
10.0 ML
N
799.833 231 M
799.833 223.01 L
S
GR
GS
[0.75 0 0 0.75 0 0.5] CT
0.149 GC
2 setlinecap
10.0 ML
N
933 231 M
933 223.01 L
S
GR
GS
[0.75 0 0 0.75 0 0.5] CT
0.149 GC
2 setlinecap
10.0 ML
N
134 60 M
134 67.99 L
S
GR
GS
[0.75 0 0 0.75 0 0.5] CT
0.149 GC
2 setlinecap
10.0 ML
N
267.167 60 M
267.167 67.99 L
S
GR
GS
[0.75 0 0 0.75 0 0.5] CT
0.149 GC
2 setlinecap
10.0 ML
N
400.333 60 M
400.333 67.99 L
S
GR
GS
[0.75 0 0 0.75 0 0.5] CT
0.149 GC
2 setlinecap
10.0 ML
N
533.5 60 M
533.5 67.99 L
S
GR
GS
[0.75 0 0 0.75 0 0.5] CT
0.149 GC
2 setlinecap
10.0 ML
N
666.667 60 M
666.667 67.99 L
S
GR
GS
[0.75 0 0 0.75 0 0.5] CT
0.149 GC
2 setlinecap
10.0 ML
N
799.833 60 M
799.833 67.99 L
S
GR
GS
[0.75 0 0 0.75 0 0.5] CT
0.149 GC
2 setlinecap
10.0 ML
N
933 60 M
933 67.99 L
S
GR
GS
[0.75 0 0 0.75 100.5 177.75] CT
0.149 GC
/Helvetica 13 F
GS
[1 0 0 1 0 0] CT
-4.5 13 moveto 
1 -1 scale
(0) t 
GR
GR
GS
[0.75 0 0 0.75 200.37499 177.75] CT
0.149 GC
/Helvetica 13 F
GS
[1 0 0 1 0 0] CT
-4.5 13 moveto 
1 -1 scale
(5) t 
GR
GR
GS
[0.75 0 0 0.75 300.25001 177.75] CT
0.149 GC
/Helvetica 13 F
GS
[1 0 0 1 0 0] CT
-8.5 13 moveto 
1 -1 scale
(10) t 
GR
GR
GS
[0.75 0 0 0.75 400.125 177.75] CT
0.149 GC
/Helvetica 13 F
GS
[1 0 0 1 0 0] CT
-8.5 13 moveto 
1 -1 scale
(15) t 
GR
GR
GS
[0.75 0 0 0.75 500.00002 177.75] CT
0.149 GC
/Helvetica 13 F
GS
[1 0 0 1 0 0] CT
-8.5 13 moveto 
1 -1 scale
(20) t 
GR
GR
GS
[0.75 0 0 0.75 599.87498 177.75] CT
0.149 GC
/Helvetica 13 F
GS
[1 0 0 1 0 0] CT
-8.5 13 moveto 
1 -1 scale
(25) t 
GR
GR
GS
[0.75 0 0 0.75 699.75 177.75] CT
0.149 GC
/Helvetica 13 F
GS
[1 0 0 1 0 0] CT
-8.5 13 moveto 
1 -1 scale
(30) t 
GR
GR
GS
[0 -0.75 0.75 0 86.75 109.62494] CT
0.149 GC
/Helvetica 15 F
GS
[1 0 0 1 0 0] CT
-94.5 -4 moveto 
1 -1 scale
(Dmetric According to Eta) t 
GR
GR
GS
[0.75 0 0 0.75 0 0.5] CT
0.149 GC
2 setlinecap
10.0 ML
N
134 231 M
134 60 L
S
GR
GS
[0.75 0 0 0.75 0 0.5] CT
0.149 GC
2 setlinecap
10.0 ML
N
933 231 M
933 60 L
S
GR
GS
[0.75 0 0 0.75 0 0.5] CT
0.149 GC
2 setlinecap
10.0 ML
N
134 231 M
141.99 231 L
S
GR
GS
[0.75 0 0 0.75 0 0.5] CT
0.149 GC
2 setlinecap
10.0 ML
N
134 174 M
141.99 174 L
S
GR
GS
[0.75 0 0 0.75 0 0.5] CT
0.149 GC
2 setlinecap
10.0 ML
N
134 117 M
141.99 117 L
S
GR
GS
[0.75 0 0 0.75 0 0.5] CT
0.149 GC
2 setlinecap
10.0 ML
N
134 60 M
141.99 60 L
S
GR
GS
[0.75 0 0 0.75 0 0.5] CT
0.149 GC
2 setlinecap
10.0 ML
N
933 231 M
925.01 231 L
S
GR
GS
[0.75 0 0 0.75 0 0.5] CT
0.149 GC
2 setlinecap
10.0 ML
N
933 174 M
925.01 174 L
S
GR
GS
[0.75 0 0 0.75 0 0.5] CT
0.149 GC
2 setlinecap
10.0 ML
N
933 117 M
925.01 117 L
S
GR
GS
[0.75 0 0 0.75 0 0.5] CT
0.149 GC
2 setlinecap
10.0 ML
N
933 60 M
925.01 60 L
S
GR
GS
[0.75 0 0 0.75 96.5 173.75] CT
0.149 GC
/Helvetica 13 F
GS
[1 0 0 1 0 0] CT
-9 4.5 moveto 
1 -1 scale
(0) t 
GR
GR
GS
[0.75 0 0 0.75 96.5 131] CT
0.149 GC
/Helvetica 13 F
GS
[1 0 0 1 0 0] CT
-9 4.5 moveto 
1 -1 scale
(2) t 
GR
GR
GS
[0.75 0 0 0.75 96.5 88.25] CT
0.149 GC
/Helvetica 13 F
GS
[1 0 0 1 0 0] CT
-9 4.5 moveto 
1 -1 scale
(4) t 
GR
GR
GS
[0.75 0 0 0.75 96.5 45.5] CT
0.149 GC
/Helvetica 13 F
GS
[1 0 0 1 0 0] CT
-9 4.5 moveto 
1 -1 scale
(6) t 
GR
GR
GS
[0.75 0 0 0.75 0 0.5] CT
0 0.447 0.741 RC
2 setlinecap
10.0 ML
N
134 202.5 M
160.633 202.5 L
187.267 202.5 L
213.9 202.09 L
240.533 202.09 L
267.167 202.084 L
293.8 201.214 L
320.433 201.195 L
347.067 200.705 L
373.7 201.132 L
400.333 200.616 L
426.967 199.577 L
453.6 198.535 L
480.233 195.824 L
506.867 192.379 L
533.5 188.929 L
560.133 184.791 L
586.767 180.364 L
613.4 175.937 L
640.033 170.956 L
666.667 167.083 L
693.3 162.655 L
719.933 159.335 L
746.567 155.461 L
773.2 151.587 L
799.833 147.714 L
826.467 142.114 L
853.1 138.728 L
879.733 134.777 L
906.367 130.827 L
933 126.876 L
S
GR
GS
[0.75 0 0 0.75 0 0.5] CT
0.851 0.325 0.098 RC
2 setlinecap
10.0 ML
N
134 202.5 M
160.633 202.5 L
187.267 202.5 L
213.9 202.5 L
240.533 202.078 L
267.167 201.643 L
293.8 201.63 L
320.433 201.616 L
347.067 201.602 L
373.7 202.5 L
400.333 202.029 L
426.967 201.063 L
453.6 199.526 L
480.233 197.456 L
506.867 194.284 L
533.5 190.995 L
560.133 186.519 L
586.767 181.329 L
613.4 176.443 L
640.033 172.668 L
666.667 168.407 L
693.3 164.678 L
719.933 160.949 L
746.567 157.22 L
773.2 153.491 L
799.833 149.762 L
826.467 146.033 L
853.1 142.304 L
879.733 138.575 L
906.367 134.846 L
933 131.117 L
S
GR
GS
[0.75 0 0 0.75 0 0.5] CT
0.929 0.694 0.125 RC
2 setlinecap
10.0 ML
N
134 202.5 M
160.633 202.5 L
187.267 202.195 L
213.9 202.195 L
240.533 201.566 L
267.167 201.24 L
293.8 199.894 L
320.433 198.79 L
347.067 197.604 L
373.7 195.881 L
400.333 193.969 L
426.967 191.838 L
453.6 189.447 L
480.233 186.996 L
506.867 183.5 L
533.5 180.419 L
560.133 176.986 L
586.767 173.136 L
613.4 168.049 L
640.033 162.935 L
666.667 157.463 L
693.3 150.682 L
719.933 144.74 L
746.567 136.911 L
773.2 128.641 L
799.833 121.543 L
826.467 116.587 L
853.1 108.067 L
879.733 99.023 L
906.367 90.31 L
933 80.09 L
S
GR
GS
[0.75 0 0 0.75 0 0.5] CT
0.494 0.184 0.557 RC
2 setlinecap
10.0 ML
N
134 202.5 M
160.633 202.5 L
187.267 202.5 L
213.9 202.313 L
240.533 202.313 L
267.167 202.126 L
293.8 201.939 L
320.433 201.748 L
347.067 201.559 L
373.7 201.559 L
400.333 201.932 L
426.967 203.447 L
453.6 204.406 L
480.233 205.169 L
506.867 205.571 L
533.5 205.763 L
560.133 205.592 L
586.767 205.398 L
613.4 205.012 L
640.033 204.251 L
666.667 203.667 L
693.3 202.695 L
719.933 201.722 L
746.567 200.36 L
773.2 198.998 L
799.833 197.637 L
826.467 196.08 L
853.1 194.329 L
879.733 192.579 L
906.367 190.633 L
933 189.168 L
S
GR
GS
[0.75 0 0 0.75 0 0.5] CT
0.467 0.675 0.188 RC
2 setlinecap
10.0 ML
N
134 202.5 M
160.633 202.5 L
187.267 202.5 L
213.9 202.5 L
240.533 202.129 L
267.167 202.129 L
293.8 201.943 L
320.433 201.566 L
347.067 201.566 L
373.7 201.566 L
400.333 201.748 L
426.967 203.441 L
453.6 204.583 L
480.233 205.169 L
506.867 205.741 L
533.5 205.955 L
560.133 205.955 L
586.767 205.592 L
613.4 205.205 L
640.033 204.625 L
666.667 203.667 L
693.3 202.695 L
719.933 201.722 L
746.567 200.555 L
773.2 199.193 L
799.833 197.637 L
826.467 196.08 L
853.1 194.329 L
879.733 192.579 L
906.367 190.633 L
933 189.168 L
S
GR
GS
[0.75 0 0 0.75 0 0.5] CT
0.302 0.745 0.933 RC
2 setlinecap
10.0 ML
N
134 202.5 M
160.633 202.5 L
187.267 202.5 L
213.9 202.5 L
240.533 202.3 L
267.167 202.1 L
293.8 201.9 L
320.433 201.904 L
347.067 201.904 L
373.7 201.706 L
400.333 202.301 L
426.967 203.096 L
453.6 203.881 L
480.233 204.275 L
506.867 204.472 L
533.5 204.655 L
560.133 204.655 L
586.767 204.263 L
613.4 203.675 L
640.033 203.278 L
666.667 202.5 L
693.3 201.527 L
719.933 200.555 L
746.567 199.602 L
773.2 198.056 L
799.833 196.51 L
826.467 195.207 L
853.1 193.48 L
879.733 192.206 L
906.367 190.49 L
933 188.774 L
S
GR
GS
[0.75 0 0 0.75 400.12537 43.4375] CT
/Helvetica-Bold 15 F
GS
[1 0 0 1 0 0] CT
-34.5 -4 moveto 
1 -1 scale
(Scope G) t 
GR
GR
GS
[0.75 0 0 0.75 0 0.5] CT
1 GC
N
200 175 M
200 76 L
347 76 L
347 175 L
cp
f
GR
GS
[0.75 0 0 0.75 189 65.15076] CT
/Helvetica 12 F
GS
[1 0 0 1 0 0] CT
0 4.5 moveto 
1 -1 scale
(Reference) t 
GR
GR
GS
[0.75 0 0 0.75 0 0.5] CT
0 0.447 0.741 RC
2 setlinecap
10.0 ML
N
208 86.201 M
248 86.201 L
S
GR
GS
[0.75 0 0 0.75 189 76.94046] CT
/Helvetica 12 F
GS
[1 0 0 1 0 0] CT
0 4.5 moveto 
1 -1 scale
(Halved G) t 
GR
GR
GS
[0.75 0 0 0.75 0 0.5] CT
0.851 0.325 0.098 RC
2 setlinecap
10.0 ML
N
208 101.921 M
248 101.921 L
S
GR
GS
[0.75 0 0 0.75 189 88.73015] CT
/Helvetica 12 F
GS
[1 0 0 1 0 0] CT
0 4.5 moveto 
1 -1 scale
(Doubled G) t 
GR
GR
GS
[0.75 0 0 0.75 0 0.5] CT
0.929 0.694 0.125 RC
2 setlinecap
10.0 ML
N
208 117.64 M
248 117.64 L
S
GR
GS
[0.75 0 0 0.75 189 100.51985] CT
/Helvetica 12 F
GS
[1 0 0 1 0 0] CT
0 4.5 moveto 
1 -1 scale
(Anti Reference) t 
GR
GR
GS
[0.75 0 0 0.75 0 0.5] CT
0.494 0.184 0.557 RC
2 setlinecap
10.0 ML
N
208 133.36 M
248 133.36 L
S
GR
GS
[0.75 0 0 0.75 189 112.30954] CT
/Helvetica 12 F
GS
[1 0 0 1 0 0] CT
0 4.5 moveto 
1 -1 scale
(Anti Halved G) t 
GR
GR
GS
[0.75 0 0 0.75 0 0.5] CT
0.467 0.675 0.188 RC
2 setlinecap
10.0 ML
N
208 149.079 M
248 149.079 L
S
GR
GS
[0.75 0 0 0.75 189 124.09924] CT
/Helvetica 12 F
GS
[1 0 0 1 0 0] CT
0 4.5 moveto 
1 -1 scale
(Anti Doubled G) t 
GR
GR
GS
[0.75 0 0 0.75 0 0.5] CT
0.302 0.745 0.933 RC
2 setlinecap
10.0 ML
N
208 164.799 M
248 164.799 L
S
GR
GS
[0.75 0 0 0.75 0 0.5] CT
0.149 GC
2 setlinecap
10.0 ML
N
200 175 M
200 76 L
347 76 L
347 175 L
200 175 L
S
GR
GS
[0.75 0 0 0.75 0 0.5] CT
1 GC
N
134 469 M
933 469 L
933 297 L
134 297 L
cp
f
GR
GS
[0.75 0 0 0.75 400.12527 369.99999] CT
0.149 GC
/Helvetica 15 F
GS
[1 0 0 1 0 0] CT
-19 14 moveto 
1 -1 scale
(Time) t 
GR
GR
GS
[0.75 0 0 0.75 0 0.5] CT
0.149 GC
2 setlinecap
10.0 ML
N
134 469 M
933 469 L
S
GR
GS
[0.75 0 0 0.75 0 0.5] CT
0.149 GC
2 setlinecap
10.0 ML
N
134 297 M
933 297 L
S
GR
GS
[0.75 0 0 0.75 0 0.5] CT
0.149 GC
2 setlinecap
10.0 ML
N
134 469 M
134 461.01 L
S
GR
GS
[0.75 0 0 0.75 0 0.5] CT
0.149 GC
2 setlinecap
10.0 ML
N
267.167 469 M
267.167 461.01 L
S
GR
GS
[0.75 0 0 0.75 0 0.5] CT
0.149 GC
2 setlinecap
10.0 ML
N
400.333 469 M
400.333 461.01 L
S
GR
GS
[0.75 0 0 0.75 0 0.5] CT
0.149 GC
2 setlinecap
10.0 ML
N
533.5 469 M
533.5 461.01 L
S
GR
GS
[0.75 0 0 0.75 0 0.5] CT
0.149 GC
2 setlinecap
10.0 ML
N
666.667 469 M
666.667 461.01 L
S
GR
GS
[0.75 0 0 0.75 0 0.5] CT
0.149 GC
2 setlinecap
10.0 ML
N
799.833 469 M
799.833 461.01 L
S
GR
GS
[0.75 0 0 0.75 0 0.5] CT
0.149 GC
2 setlinecap
10.0 ML
N
933 469 M
933 461.01 L
S
GR
GS
[0.75 0 0 0.75 0 0.5] CT
0.149 GC
2 setlinecap
10.0 ML
N
134 297 M
134 304.99 L
S
GR
GS
[0.75 0 0 0.75 0 0.5] CT
0.149 GC
2 setlinecap
10.0 ML
N
267.167 297 M
267.167 304.99 L
S
GR
GS
[0.75 0 0 0.75 0 0.5] CT
0.149 GC
2 setlinecap
10.0 ML
N
400.333 297 M
400.333 304.99 L
S
GR
GS
[0.75 0 0 0.75 0 0.5] CT
0.149 GC
2 setlinecap
10.0 ML
N
533.5 297 M
533.5 304.99 L
S
GR
GS
[0.75 0 0 0.75 0 0.5] CT
0.149 GC
2 setlinecap
10.0 ML
N
666.667 297 M
666.667 304.99 L
S
GR
GS
[0.75 0 0 0.75 0 0.5] CT
0.149 GC
2 setlinecap
10.0 ML
N
799.833 297 M
799.833 304.99 L
S
GR
GS
[0.75 0 0 0.75 0 0.5] CT
0.149 GC
2 setlinecap
10.0 ML
N
933 297 M
933 304.99 L
S
GR
GS
[0.75 0 0 0.75 100.5 356.25001] CT
0.149 GC
/Helvetica 13 F
GS
[1 0 0 1 0 0] CT
-4.5 13 moveto 
1 -1 scale
(0) t 
GR
GR
GS
[0.75 0 0 0.75 200.37499 356.25001] CT
0.149 GC
/Helvetica 13 F
GS
[1 0 0 1 0 0] CT
-4.5 13 moveto 
1 -1 scale
(5) t 
GR
GR
GS
[0.75 0 0 0.75 300.25001 356.25001] CT
0.149 GC
/Helvetica 13 F
GS
[1 0 0 1 0 0] CT
-8.5 13 moveto 
1 -1 scale
(10) t 
GR
GR
GS
[0.75 0 0 0.75 400.125 356.25001] CT
0.149 GC
/Helvetica 13 F
GS
[1 0 0 1 0 0] CT
-8.5 13 moveto 
1 -1 scale
(15) t 
GR
GR
GS
[0.75 0 0 0.75 500.00002 356.25001] CT
0.149 GC
/Helvetica 13 F
GS
[1 0 0 1 0 0] CT
-8.5 13 moveto 
1 -1 scale
(20) t 
GR
GR
GS
[0.75 0 0 0.75 599.87498 356.25001] CT
0.149 GC
/Helvetica 13 F
GS
[1 0 0 1 0 0] CT
-8.5 13 moveto 
1 -1 scale
(25) t 
GR
GR
GS
[0.75 0 0 0.75 699.75 356.25001] CT
0.149 GC
/Helvetica 13 F
GS
[1 0 0 1 0 0] CT
-8.5 13 moveto 
1 -1 scale
(30) t 
GR
GR
GS
[0 -0.75 0.75 0 86.75 287.74993] CT
0.149 GC
/Helvetica 15 F
GS
[1 0 0 1 0 0] CT
-94.5 -4 moveto 
1 -1 scale
(Dmetric According to Eta) t 
GR
GR
GS
[0.75 0 0 0.75 0 0.5] CT
0.149 GC
2 setlinecap
10.0 ML
N
134 469 M
134 297 L
S
GR
GS
[0.75 0 0 0.75 0 0.5] CT
0.149 GC
2 setlinecap
10.0 ML
N
933 469 M
933 297 L
S
GR
GS
[0.75 0 0 0.75 0 0.5] CT
0.149 GC
2 setlinecap
10.0 ML
N
134 469 M
141.99 469 L
S
GR
GS
[0.75 0 0 0.75 0 0.5] CT
0.149 GC
2 setlinecap
10.0 ML
N
134 411.667 M
141.99 411.667 L
S
GR
GS
[0.75 0 0 0.75 0 0.5] CT
0.149 GC
2 setlinecap
10.0 ML
N
134 354.333 M
141.99 354.333 L
S
GR
GS
[0.75 0 0 0.75 0 0.5] CT
0.149 GC
2 setlinecap
10.0 ML
N
134 297 M
141.99 297 L
S
GR
GS
[0.75 0 0 0.75 0 0.5] CT
0.149 GC
2 setlinecap
10.0 ML
N
933 469 M
925.01 469 L
S
GR
GS
[0.75 0 0 0.75 0 0.5] CT
0.149 GC
2 setlinecap
10.0 ML
N
933 411.667 M
925.01 411.667 L
S
GR
GS
[0.75 0 0 0.75 0 0.5] CT
0.149 GC
2 setlinecap
10.0 ML
N
933 354.333 M
925.01 354.333 L
S
GR
GS
[0.75 0 0 0.75 0 0.5] CT
0.149 GC
2 setlinecap
10.0 ML
N
933 297 M
925.01 297 L
S
GR
GS
[0.75 0 0 0.75 96.5 352.25] CT
0.149 GC
/Helvetica 13 F
GS
[1 0 0 1 0 0] CT
-9 4.5 moveto 
1 -1 scale
(1) t 
GR
GR
GS
[0.75 0 0 0.75 96.5 309.24999] CT
0.149 GC
/Helvetica 13 F
GS
[1 0 0 1 0 0] CT
-9 4.5 moveto 
1 -1 scale
(2) t 
GR
GR
GS
[0.75 0 0 0.75 96.5 266.25001] CT
0.149 GC
/Helvetica 13 F
GS
[1 0 0 1 0 0] CT
-9 4.5 moveto 
1 -1 scale
(3) t 
GR
GR
GS
[0.75 0 0 0.75 96.5 223.25] CT
0.149 GC
/Helvetica 13 F
GS
[1 0 0 1 0 0] CT
-9 4.5 moveto 
1 -1 scale
(4) t 
GR
GR
GS
[0.75 0 0 0.75 0 0.5] CT
0 0.447 0.741 RC
2 setlinecap
10.0 ML
N
134 469 M
160.633 469 L
187.267 469 L
213.9 468.175 L
240.533 468.175 L
267.167 468.163 L
293.8 466.414 L
320.433 466.374 L
347.067 465.388 L
373.7 466.248 L
400.333 465.209 L
426.967 463.12 L
453.6 461.023 L
480.233 455.571 L
506.867 448.639 L
533.5 441.698 L
560.133 433.375 L
586.767 424.469 L
613.4 415.563 L
640.033 405.544 L
666.667 397.751 L
693.3 388.845 L
719.933 382.165 L
746.567 374.372 L
773.2 366.579 L
799.833 358.786 L
826.467 347.521 L
853.1 340.71 L
879.733 332.762 L
906.367 324.815 L
933 316.868 L
S
GR
GS
[0.75 0 0 0.75 0 0.5] CT
0.851 0.325 0.098 RC
2 setlinecap
10.0 ML
N
134 469 M
160.633 469 L
187.267 469 L
213.9 469 L
240.533 468.175 L
267.167 469 L
293.8 468.163 L
320.433 468.163 L
347.067 468.151 L
373.7 468.138 L
400.333 467.249 L
426.967 467.222 L
453.6 467.194 L
480.233 466.203 L
506.867 466.157 L
533.5 467.073 L
560.133 467.006 L
586.767 466.97 L
613.4 465.844 L
640.033 465.785 L
666.667 465.724 L
693.3 463.323 L
719.933 462.051 L
746.567 459.543 L
773.2 456.93 L
799.833 454.204 L
826.467 450.099 L
853.1 444.521 L
879.733 438.686 L
906.367 433.414 L
933 426.824 L
S
GR
GS
[0.75 0 0 0.75 0 0.5] CT
0.929 0.694 0.125 RC
2 setlinecap
10.0 ML
N
134 469 M
160.633 469 L
187.267 469 L
213.9 469 L
240.533 469 L
267.167 469 L
293.8 469 L
320.433 468.163 L
347.067 469 L
373.7 469 L
400.333 469 L
426.967 469 L
453.6 469 L
480.233 468.111 L
506.867 469 L
533.5 469 L
560.133 469 L
586.767 469 L
613.4 469 L
640.033 469 L
666.667 469 L
693.3 469 L
719.933 469 L
746.567 467.948 L
773.2 467.928 L
799.833 467.908 L
826.467 469 L
853.1 469 L
879.733 467.865 L
906.367 467.842 L
933 467.818 L
S
GR
GS
[0.75 0 0 0.75 0 0.5] CT
0.494 0.184 0.557 RC
2 setlinecap
10.0 ML
N
134 469 M
160.633 469 L
187.267 469 L
213.9 469 L
240.533 469 L
267.167 469 L
293.8 469 L
320.433 469 L
347.067 469 L
373.7 469 L
400.333 469 L
426.967 469 L
453.6 469 L
480.233 469 L
506.867 469 L
533.5 469 L
560.133 469 L
586.767 469 L
613.4 469 L
640.033 469 L
666.667 469 L
693.3 469 L
719.933 469 L
746.567 469 L
773.2 469 L
799.833 469 L
826.467 469 L
853.1 469 L
879.733 469 L
906.367 469 L
933 469 L
S
GR
GS
[0.75 0 0 0.75 400.12537 221.1875] CT
/Helvetica-Bold 15 F
GS
[1 0 0 1 0 0] CT
-34.5 -4 moveto 
1 -1 scale
(Scope G) t 
GR
GR
GS
[0.75 0 0 0.75 0 0.5] CT
1 GC
N
188 396 M
188 328 L
309 328 L
309 396 L
cp
f
GR
GS
[0.75 0 0 0.75 180 254.2005] CT
/Helvetica 12 F
GS
[1 0 0 1 0 0] CT
0 4.5 moveto 
1 -1 scale
(Reference) t 
GR
GR
GS
[0.75 0 0 0.75 0 0.5] CT
0 0.447 0.741 RC
2 setlinecap
10.0 ML
N
196 338.267 M
236 338.267 L
S
GR
GS
[0.75 0 0 0.75 180 266.06683] CT
/Helvetica 12 F
GS
[1 0 0 1 0 0] CT
0 4.5 moveto 
1 -1 scale
(B = 0.5 B0) t 
GR
GR
GS
[0.75 0 0 0.75 0 0.5] CT
0.851 0.325 0.098 RC
2 setlinecap
10.0 ML
N
196 354.089 M
236 354.089 L
S
GR
GS
[0.75 0 0 0.75 180 277.93317] CT
/Helvetica 12 F
GS
[1 0 0 1 0 0] CT
0 4.5 moveto 
1 -1 scale
(B = 0.1 B0) t 
GR
GR
GS
[0.75 0 0 0.75 0 0.5] CT
0.929 0.694 0.125 RC
2 setlinecap
10.0 ML
N
196 369.911 M
236 369.911 L
S
GR
GS
[0.75 0 0 0.75 180 289.7995] CT
/Helvetica 12 F
GS
[1 0 0 1 0 0] CT
0 4.5 moveto 
1 -1 scale
(B = 0.0 B0) t 
GR
GR
GS
[0.75 0 0 0.75 0 0.5] CT
0.494 0.184 0.557 RC
2 setlinecap
10.0 ML
N
196 385.733 M
236 385.733 L
S
GR
GS
[0.75 0 0 0.75 0 0.5] CT
0.149 GC
2 setlinecap
10.0 ML
N
188 396 M
188 328 L
309 328 L
309 396 L
188 396 L
S
GR
GS
[0.75 0 0 0.75 0 0.5] CT
1 GC
N
134 707 M
933 707 L
933 535 L
134 535 L
cp
f
GR
GS
[0.75 0 0 0.75 400.12527 548.50002] CT
0.149 GC
/Helvetica 15 F
GS
[1 0 0 1 0 0] CT
-19 14 moveto 
1 -1 scale
(Time) t 
GR
GR
GS
[0.75 0 0 0.75 0 0.5] CT
0.149 GC
2 setlinecap
10.0 ML
N
134 707 M
933 707 L
S
GR
GS
[0.75 0 0 0.75 0 0.5] CT
0.149 GC
2 setlinecap
10.0 ML
N
134 535 M
933 535 L
S
GR
GS
[0.75 0 0 0.75 0 0.5] CT
0.149 GC
2 setlinecap
10.0 ML
N
134 707 M
134 699.01 L
S
GR
GS
[0.75 0 0 0.75 0 0.5] CT
0.149 GC
2 setlinecap
10.0 ML
N
267.167 707 M
267.167 699.01 L
S
GR
GS
[0.75 0 0 0.75 0 0.5] CT
0.149 GC
2 setlinecap
10.0 ML
N
400.333 707 M
400.333 699.01 L
S
GR
GS
[0.75 0 0 0.75 0 0.5] CT
0.149 GC
2 setlinecap
10.0 ML
N
533.5 707 M
533.5 699.01 L
S
GR
GS
[0.75 0 0 0.75 0 0.5] CT
0.149 GC
2 setlinecap
10.0 ML
N
666.667 707 M
666.667 699.01 L
S
GR
GS
[0.75 0 0 0.75 0 0.5] CT
0.149 GC
2 setlinecap
10.0 ML
N
799.833 707 M
799.833 699.01 L
S
GR
GS
[0.75 0 0 0.75 0 0.5] CT
0.149 GC
2 setlinecap
10.0 ML
N
933 707 M
933 699.01 L
S
GR
GS
[0.75 0 0 0.75 0 0.5] CT
0.149 GC
2 setlinecap
10.0 ML
N
134 535 M
134 542.99 L
S
GR
GS
[0.75 0 0 0.75 0 0.5] CT
0.149 GC
2 setlinecap
10.0 ML
N
267.167 535 M
267.167 542.99 L
S
GR
GS
[0.75 0 0 0.75 0 0.5] CT
0.149 GC
2 setlinecap
10.0 ML
N
400.333 535 M
400.333 542.99 L
S
GR
GS
[0.75 0 0 0.75 0 0.5] CT
0.149 GC
2 setlinecap
10.0 ML
N
533.5 535 M
533.5 542.99 L
S
GR
GS
[0.75 0 0 0.75 0 0.5] CT
0.149 GC
2 setlinecap
10.0 ML
N
666.667 535 M
666.667 542.99 L
S
GR
GS
[0.75 0 0 0.75 0 0.5] CT
0.149 GC
2 setlinecap
10.0 ML
N
799.833 535 M
799.833 542.99 L
S
GR
GS
[0.75 0 0 0.75 0 0.5] CT
0.149 GC
2 setlinecap
10.0 ML
N
933 535 M
933 542.99 L
S
GR
GS
[0.75 0 0 0.75 100.5 534.74998] CT
0.149 GC
/Helvetica 13 F
GS
[1 0 0 1 0 0] CT
-4.5 13 moveto 
1 -1 scale
(0) t 
GR
GR
GS
[0.75 0 0 0.75 200.37499 534.74998] CT
0.149 GC
/Helvetica 13 F
GS
[1 0 0 1 0 0] CT
-4.5 13 moveto 
1 -1 scale
(5) t 
GR
GR
GS
[0.75 0 0 0.75 300.25001 534.74998] CT
0.149 GC
/Helvetica 13 F
GS
[1 0 0 1 0 0] CT
-8.5 13 moveto 
1 -1 scale
(10) t 
GR
GR
GS
[0.75 0 0 0.75 400.125 534.74998] CT
0.149 GC
/Helvetica 13 F
GS
[1 0 0 1 0 0] CT
-8.5 13 moveto 
1 -1 scale
(15) t 
GR
GR
GS
[0.75 0 0 0.75 500.00002 534.74998] CT
0.149 GC
/Helvetica 13 F
GS
[1 0 0 1 0 0] CT
-8.5 13 moveto 
1 -1 scale
(20) t 
GR
GR
GS
[0.75 0 0 0.75 599.87498 534.74998] CT
0.149 GC
/Helvetica 13 F
GS
[1 0 0 1 0 0] CT
-8.5 13 moveto 
1 -1 scale
(25) t 
GR
GR
GS
[0.75 0 0 0.75 699.75 534.74998] CT
0.149 GC
/Helvetica 13 F
GS
[1 0 0 1 0 0] CT
-8.5 13 moveto 
1 -1 scale
(30) t 
GR
GR
GS
[0 -0.75 0.75 0 86.75 466.24995] CT
0.149 GC
/Helvetica 15 F
GS
[1 0 0 1 0 0] CT
-94.5 -4 moveto 
1 -1 scale
(Dmetric According to Eta) t 
GR
GR
GS
[0.75 0 0 0.75 0 0.5] CT
0.149 GC
2 setlinecap
10.0 ML
N
134 707 M
134 535 L
S
GR
GS
[0.75 0 0 0.75 0 0.5] CT
0.149 GC
2 setlinecap
10.0 ML
N
933 707 M
933 535 L
S
GR
GS
[0.75 0 0 0.75 0 0.5] CT
0.149 GC
2 setlinecap
10.0 ML
N
134 707 M
141.99 707 L
S
GR
GS
[0.75 0 0 0.75 0 0.5] CT
0.149 GC
2 setlinecap
10.0 ML
N
134 649.667 M
141.99 649.667 L
S
GR
GS
[0.75 0 0 0.75 0 0.5] CT
0.149 GC
2 setlinecap
10.0 ML
N
134 592.333 M
141.99 592.333 L
S
GR
GS
[0.75 0 0 0.75 0 0.5] CT
0.149 GC
2 setlinecap
10.0 ML
N
134 535 M
141.99 535 L
S
GR
GS
[0.75 0 0 0.75 0 0.5] CT
0.149 GC
2 setlinecap
10.0 ML
N
933 707 M
925.01 707 L
S
GR
GS
[0.75 0 0 0.75 0 0.5] CT
0.149 GC
2 setlinecap
10.0 ML
N
933 649.667 M
925.01 649.667 L
S
GR
GS
[0.75 0 0 0.75 0 0.5] CT
0.149 GC
2 setlinecap
10.0 ML
N
933 592.333 M
925.01 592.333 L
S
GR
GS
[0.75 0 0 0.75 0 0.5] CT
0.149 GC
2 setlinecap
10.0 ML
N
933 535 M
925.01 535 L
S
GR
GS
[0.75 0 0 0.75 96.5 530.75] CT
0.149 GC
/Helvetica 13 F
GS
[1 0 0 1 0 0] CT
-9 4.5 moveto 
1 -1 scale
(1) t 
GR
GR
GS
[0.75 0 0 0.75 96.5 487.75002] CT
0.149 GC
/Helvetica 13 F
GS
[1 0 0 1 0 0] CT
-9 4.5 moveto 
1 -1 scale
(2) t 
GR
GR
GS
[0.75 0 0 0.75 96.5 444.74998] CT
0.149 GC
/Helvetica 13 F
GS
[1 0 0 1 0 0] CT
-9 4.5 moveto 
1 -1 scale
(3) t 
GR
GR
GS
[0.75 0 0 0.75 96.5 401.75] CT
0.149 GC
/Helvetica 13 F
GS
[1 0 0 1 0 0] CT
-9 4.5 moveto 
1 -1 scale
(4) t 
GR
GR
GS
[0.75 0 0 0.75 0 0.5] CT
0 0.447 0.741 RC
2 setlinecap
10.0 ML
N
134 707 M
160.633 707 L
187.267 707 L
213.9 706.175 L
240.533 706.175 L
267.167 706.163 L
293.8 704.414 L
320.433 704.374 L
347.067 703.388 L
373.7 704.248 L
400.333 703.209 L
426.967 701.12 L
453.6 699.023 L
480.233 693.571 L
506.867 686.639 L
533.5 679.698 L
560.133 671.375 L
586.767 662.469 L
613.4 653.563 L
640.033 643.544 L
666.667 635.751 L
693.3 626.845 L
719.933 620.165 L
746.567 612.372 L
773.2 604.579 L
799.833 596.786 L
826.467 585.521 L
853.1 578.71 L
879.733 570.762 L
906.367 562.815 L
933 554.868 L
S
GR
GS
[0.75 0 0 0.75 0 0.5] CT
0.851 0.325 0.098 RC
2 setlinecap
10.0 ML
N
134 707 M
160.633 707 L
187.267 706.52 L
213.9 706.52 L
240.533 706.04 L
267.167 705.561 L
293.8 704.097 L
320.433 703.129 L
347.067 702.162 L
373.7 700.169 L
400.333 698.217 L
426.967 695.189 L
453.6 692.728 L
480.233 689.626 L
506.867 685.279 L
533.5 681.009 L
560.133 677.951 L
586.767 674.384 L
613.4 671.326 L
640.033 667.759 L
666.667 664.701 L
693.3 661.133 L
719.933 658.076 L
746.567 654.508 L
773.2 650.941 L
799.833 647.883 L
826.467 644.316 L
853.1 641.258 L
879.733 637.69 L
906.367 634.633 L
933 631.065 L
S
GR
GS
[0.75 0 0 0.75 400.12537 399.6875] CT
/Helvetica-Bold 15 F
GS
[1 0 0 1 0 0] CT
-63.5 -4 moveto 
1 -1 scale
(Scope Latitude) t 
GR
GR
GS
[0.75 0 0 0.75 0 0.5] CT
1 GC
N
182 608 M
182 572 L
300 572 L
300 608 L
cp
f
GR
GS
[0.75 0 0 0.75 175.5 437.12502] CT
/Helvetica 12 F
GS
[1 0 0 1 0 0] CT
0 4.5 moveto 
1 -1 scale
(Reference) t 
GR
GR
GS
[0.75 0 0 0.75 0 0.5] CT
0 0.447 0.741 RC
2 setlinecap
10.0 ML
N
190 582.167 M
230 582.167 L
S
GR
GS
[0.75 0 0 0.75 175.5 448.87498] CT
/Helvetica 12 F
GS
[1 0 0 1 0 0] CT
0 4.5 moveto 
1 -1 scale
(Lat = 0) t 
GR
GR
GS
[0.75 0 0 0.75 0 0.5] CT
0.851 0.325 0.098 RC
2 setlinecap
10.0 ML
N
190 597.833 M
230 597.833 L
S
GR
GS
[0.75 0 0 0.75 0 0.5] CT
0.149 GC
2 setlinecap
10.0 ML
N
182 608 M
182 572 L
300 572 L
300 608 L
182 608 L
S
GR
%%Trailer
%%Pages: 1
%%EOF
